{
	"info": {
		"_postman_id": "6545eeca-d536-437e-a791-6d277585568a",
		"name": "Fee",
		"schema": "https://schema.getpostman.com/json/collection/v2.1.0/collection.json"
	},
	"item": [
		{
			"name": "health-check",
			"protocolProfileBehavior": {
				"disableBodyPruning": true
			},
			"request": {
				"method": "GET",
				"header": [],
				"body": {
					"mode": "raw",
					"raw": "{\n    \"jparam1\": \"value1\",\n    \"jparam2\": \"value2\"\n}",
					"options": {
						"raw": {
							"language": "json"
						}
					}
				},
				"url": {
					"raw": "http://localhost:8081/api/transactions/fee/health-check",
					"protocol": "http",
					"host": [
						"localhost"
					],
					"port": "8081",
					"path": [
						"api",
						"transactions",
						"fee",
						"health-check"
					]
				}
			},
			"response": []
		},
		{
			"name": "fee",
			"request": {
				"method": "POST",
				"header": [],
				"body": {
					"mode": "raw",
					"raw": "{\n    \"account_type\": \"SAVINGS\",\n    \"amount\" : 2345\n}",
					"options": {
						"raw": {
							"language": "json"
						}
					}
				},
				"url": {
					"raw": "http://localhost:8081/api/transactions/fee",
					"protocol": "http",
					"host": [
						"localhost"
					],
					"port": "8081",
					"path": [
						"api",
						"transactions",
						"fee"
					]
				}
			},
			"response": []
		}
	]
}